1	595	596
2	238	588
3	441	506
4	591	597
5	503	509
6	464	494
7	591	597
8	534	553
9	543	552
10	291	453
11	599	600
12	26	92
13	536	556
14	483	506
15	278	297
16	591	598
17	381	478
18	551	580
19	545	555
20	414	546
21	595	596
22	570	583
23	523	546
24	563	588
25	560	579
26	12	92
27	488	509
28	599	600
29	413	583
30	595	596
31	595	596
32	254	582
33	536	544
34	595	596
35	498	527
36	597	598
37	421	478
38	534	553
39	544	556
40	403	478
41	479	507
42	595	596
43	458	460
44	110	336
45	316	485
46	212	316
47	540	577
48	401	577
49	331	525
50	498	527
51	563	588
52	79	463
53	61	113
54	539	577
55	432	445
56	561	588
57	488	509
58	512	576
59	523	546
60	595	596
61	53	113
62	81	464
63	561	567
64	563	588
65	420	527
66	595	596
67	93	288
68	432	445
69	250	571
70	495	571
71	410	444
72	436	513
73	574	579
74	597	598
75	226	326
76	420	527
77	597	598
78	597	598
79	52	553
80	597	598
81	62	464
82	570	583
83	513	527
84	574	579
85	442	588
86	524	556
87	523	546
88	599	600
89	199	391
90	545	583
91	493	538
92	12	26
93	67	288
94	595	596
95	599	600
96	524	544
97	595	596
98	202	277
99	572	576
100	484	525
101	599	600
102	597	598
103	563	588
104	140	591
105	149	178
106	597	598
107	597	598
108	263	510
109	237	327
110	44	336
111	574	579
112	467	588
113	53	61
114	561	588
115	406	427
116	561	588
117	223	588
118	593	595
119	572	576
120	240	326
121	455	496
122	398	583
123	599	600
124	599	600
125	545	566
126	477	507
127	572	582
128	134	464
129	190	391
130	451	571
131	595	596
132	576	582
133	424	498
134	128	464
135	182	360
136	597	598
137	568	572
138	597	598
139	597	598
140	104	596
141	568	582
142	503	509
143	466	496
144	570	580
145	488	509
146	574	579
147	543	552
148	599	600
149	105	186
150	493	538
151	539	577
152	482	571
153	179	453
154	512	582
155	597	598
156	594	599
157	597	598
158	414	546
159	599	600
160	599	600
161	463	553
162	406	444
163	535	583
164	599	600
165	597	598
166	570	580
167	543	552
168	521	580
169	500	556
170	204	288
171	591	598
172	597	598
173	400	553
174	567	588
175	437	538
176	563	588
177	597	598
178	105	186
179	153	274
180	568	572
181	599	600
182	135	445
183	597	598
184	523	546
185	523	546
186	149	178
187	483	506
188	510	577
189	574	579
190	129	391
191	447	571
192	504	577
193	561	588
194	539	577
195	447	571
196	388
197	200	214
198	595	596
199	89	391
200	197	214
201	567	588
202	98	277
203	595	596
204	170	496
205	372	506
206	415	534
207	574	579
208	597	598
209	599	600
210	461	577
211	390	553
212	46	316
213	523	546
214	197	200
215	599	600
216	563	588
217	568	582
218	480	525
219	560	579
220	267	375
221	595	596
222	599	600
223	117	588
224	597	598
225	599	600
226	75	240
227	422	507
228	523	546
229	517	540
230	568	582
231	450	531
232	378	484
233	561	588
234	447	571
235	277
236	591	598
237	109	348	471
238	2	567	588
239	379	428	588
240	120	226	326
241	430	493	538
242	258	501	531
243	291	480	484
244	403	421	478
245	591	597	598
246	415	534	553
247	591	597	598
248	258	595	596
249	594	599	600
250	69	482	571
251	407	437	493
252	564	570	580
253	591	597	598
254	32	470	576
255	594	599	600
256	313	430	538
257	482	495	571
258	242	248	531
259	524	544	556
260	364	593	595
261	461	514	577
262	278	297	388
263	108	504	577
264	565	574	579
265	384	497	588
266	468	495	571
267	220	493	538
268	536	544	556
269	561	563	588
270	519	545	580
271	591	597	598
272	510	517	539
273	448	466	496
274	179	480	525
275	349	385	509
276	593	595	596
277	98	202	235
278	15	262	388
279	390	534	553
280	594	599	600
281	593	595	596
282	593	595	596
283	409	540	577
284	477	479	507
285	591	597	598
286	593	595	596
287	593	595	596
288	67	93	170
289	505	576	582
290	536	544	556
291	10	243	525
292	497	561	588
293	593	595	596
294	476	543	552
295	561	567	588
296	565	574	579
297	15	262	388
298	593	595	596
299	510	540	577
300	594	599	600
301	487	543	552
302	448	455	496
303	407	493	538
304	594	599	600
305	594	599	600
306	551	555	566
307	594	599	600
308	336	598	600
309	402	471	503
310	428	567	588
311	409	510	539
312	572	576	582
313	256	430	538
314	360	432	445
315	468	495	571
316	45	46	212
317	514	517	539
318	593	595	596
319	447	451	571
320	369	458	460
321	594	599	600
322	565	574	579
323	441	483	506
324	591	597	598
325	424	513	527
326	75	120	240
327	109	452	471
328	594	599	600
329	591	597	598
330	444	501	531
331	49	484	525
332	409	510	514
333	415	426	534
334	594	599	600
335	477	479	507
336	44	110	308
337	591	597	598
338	382	458	460
339	560	565	579
340	565	574	579
341	448	455	466
342	530	576	582
343	449	551	583
344	565	574	579
345	551	566	580
346	561	567	588
347	594	599	600
348	237	452	488
349	275	402	488	509
350	422	477	479	507
351	356	476	543	552
352	535	570	580	583
353	592	594	599	600
354	581	593	595	596
355	424	436	513	527
356	351	494	543	552
357	551	566	570	580
358	535	564	566	580
359	589	591	597	598
360	135	314	432	445
361	581	593	595	596
362	408	566	580	583
363	589	591	597	598
364	260	568	576	582
365	524	536	544	556
366	581	593	595	596
367	592	594	599	600
368	519	555	570	580
369	320	382	458	460
370	589	591	597	598
371	497	563	567	588
372	205	423	483	506
373	469	545	564	583
374	442	563	567	588
375	220	594	599	600
376	589	591	597	598
377	560	565	574	579
378	232	453	480	525
379	239	451	468	571
380	395	414	523	546
381	17	403	421	478
382	338	369	458	460
383	560	565	574	579
384	265	563	567	588
385	275	402	471	503
386	487	494	543	552
387	581	593	595	596
388	196	262	278	297
389	589	591	597	598
390	211	279	426	463
391	89	129	190	199
392	592	594	599	600
393	592	594	599	600
394	409	539	540	577
395	380	414	523	546
396	581	593	595	596
397	446	450	501	531
398	122	519	566	580
399	587	589	591	597	598
400	173	426	463	534	553
401	48	514	517	540	577
402	309	349	385	452	503
403	40	244	381	421	478
404	590	592	594	599	600
405	587	589	591	597	598
406	115	162	446	501	531
407	251	303	437	493	538
408	362	535	566	580	583
409	283	311	332	394	504
410	71	444	446	501	531
411	587	589	591	597	598
412	428	443	561	567	588
413	29	434	555	564	583
414	20	158	380	395	546
415	206	246	333	534	553
416	590	592	594	599	600
417	587	589	591	597	598
418	587	589	591	597	598
419	530	568	572	576	582
420	65	76	498	513	527
421	37	244	381	403	478
422	227	350	477	479	507
423	372	441	464	483	506
424	133	325	355	498	513
425	587	589	591	597	598
426	333	390	400	534	553
427	115	446	450	501	531
428	239	310	412	567	588
429	476	487	494	543	552
430	241	256	313	437	538
431	500	524	536	544	556
432	55	68	314	360	445
433	590	592	594	599	600
434	413	469	564	570	583
435	459	474	568	572	582
436	72	355	498	513	527
437	175	251	407	430	538
438	555	564	570	580	583
439	504	517	539	540	577
440	474	518	572	576	582
441	3	323	423	483	506
442	85	374	497	561	588
443	412	497	561	563	567	588
444	71	162	330	410	450	531
445	55	68	182	314	360	432
446	397	406	410	427	450	531
447	191	195	234	319	482	571
448	273	302	341	455	466	496
449	343	457	535	555	566	570
450	231	397	427	444	446	501
451	130	319	379	468	495	571
452	327	348	402	471	503	509
453	10	153	378	480	484	525
454	586	590	592	594	599	600
455	121	302	341	448	466	496
456	586	590	592	594	599	600
457	449	551	555	566	580	583
458	43	320	338	369	382	460
459	435	505	530	568	572	576
460	43	320	338	369	382	458
461	210	261	504	539	540	577
462	500	524	536	544	556
463	52	161	390	400	534	553
464	6	62	81	128	134	423
465	532	541	560	565	574	579
466	143	273	341	448	455	496
467	112	470	561	563	567	588
468	266	315	379	451	495	571
469	373	434	555	564	570	583
470	254	467	518	568	572	576	582
471	237	309	327	385	452	488	503
472	584	586	590	592	594	599	600
473	512	518	530	568	572	576	582
474	435	440	505	530	572	576	582
475	482	528	542	581	593	595	596
476	294	351	429	487	494	543	552
477	126	284	335	350	422	479	507
478	17	37	40	244	381	403	421
479	41	284	335	350	422	477	507
480	218	243	274	378	453	484	525
481	528	558	569	581	593	595	596
482	152	250	257	447	475	495	571
483	14	187	323	372	423	441	506
484	100	232	243	331	453	480	525
485	45	585	587	589	591	597	598
486	532	541	560	565	574	579
487	301	386	429	476	494	543	552
488	27	57	145	348	349	471	509
489	584	586	590	592	594	599	600
490	554	558	569	581	593	595	596
491	537	542	569	581	593	595	596
492	537	558	559	569	581	593	595	596
493	91	150	241	251	267	303	407	538
494	6	356	386	429	476	487	543	552
495	70	257	266	315	451	468	482	571
496	121	143	204	273	302	448	455	466
497	265	292	371	442	443	563	567	588
498	35	50	133	420	424	436	513	527
499	542	554	558	569	581	593	595	596
500	169	431	462	524	536	544	556
501	242	330	397	406	410	427	450	531
502	578	584	586	590	592	594	599	600
503	5	142	309	385	402	452	471	514
504	192	263	409	439	461	510	514	517
505	289	459	474	512	518	530	568	582
506	3	14	187	205	323	372	423	441	483
507	41	126	227	284	335	350	422	477	479
508	575	578	584	586	590	592	594	599	600
509	5	27	57	142	145	275	349	452	488
510	108	188	272	299	311	332	504	540	577
511	548	550	573	585	587	589	591	597	598
512	58	154	473	505	518	530	568	576	582
513	72	83	325	355	420	424	436	498	527
514	261	317	332	401	503	504	517	540	577
515	516	529	537	542	569	581	593	595	596
516	515	537	554	559	569	581	593	595	596
517	229	272	317	401	439	504	514	539	577
518	440	470	473	505	512	530	572	576	582
519	270	368	398	545	551	564	566	580	583
520	575	578	584	586	590	592	594	599	600
521	168	535	545	551	555	564	566	580	583
522	575	578	584	586	590	592	594	599	600
523	23	59	87	184	185	213	228	380	395	546
524	86	96	259	365	431	462	500	536	544	556
525	49	100	218	274	291	331	378	453	480	484
526	562	575	578	584	586	590	592	594	599	600
527	35	50	65	76	83	325	355	420	436	498	513
528	475	481	537	554	558	559	569	581	593	595	596
529	515	542	547	554	558	559	569	581	593	595	596
530	342	419	459	473	474	505	512	518	568	572	582
531	231	242	258	330	397	406	410	427	444	446	501
532	465	486	541	560	565	574	579
533	557	562	575	578	584	586	590	592	594	599	600
534	8	38	206	246	279	333	400	415	426	463	553
535	163	352	358	408	449	521	545	555	564	570	583
536	13	33	268	290	365	431	462	500	524	544	556
537	491	492	515	516	528	554	559	569	581	593	595	596
538	91	150	175	241	256	267	303	313	407	430	437	493
539	54	151	194	272	311	317	394	439	461	517	540	577
540	47	229	283	299	394	401	439	461	510	514	539	577
541	465	486	532	560	565	574	579
542	475	491	499	515	529	554	558	559	569	581	593	595	596
543	9	147	167	294	301	351	356	386	429	476	487	494	552
544	33	39	96	259	268	290	365	431	462	500	524	536	556
545	19	90	125	270	373	519	521	535	564	566	570	580	583
546	20	23	59	87	158	184	185	213	228	380	395	414	523
547	529	557	562	575	578	584	586	590	592	594	599	600
548	511	549	550	573	585	587	589	591	597	598
549	548	550	573	585	587	589	591	597	598
550	511	548	549	573	585	587	589	591	597	598
551	18	306	343	345	357	457	519	521	564	566	570	580	583
552	9	147	167	294	301	351	356	386	429	476	487	494	543
553	8	38	79	161	173	211	246	279	400	415	426	463	534
554	490	499	516	528	529	537	542	558	559	581	593	595	596
555	19	306	368	413	438	449	457	469	521	535	566	570	580	583
556	13	39	86	169	259	268	290	365	431	462	500	524	536	544
557	533	547	562	575	578	584	586	590	592	594	599	600
558	481	490	492	499	528	529	542	554	559	569	581	593	595	596
559	492	516	528	529	537	542	554	558	563	569	581	593	595	596
560	25	219	339	377	383	465	486	532	541	565	574	579
561	56	63	114	116	193	233	269	292	295	346	412	442	443	467	563	588
562	526	533	547	557	575	578	584	586	590	592	594	599	600
563	24	51	64	103	176	216	269	371	374	384	443	467	497	559	561	588
564	252	358	373	413	434	438	469	519	521	535	545	551	566	570	580	583
565	264	296	322	339	340	344	377	383	465	486	532	541	560	567	574	579
566	125	306	345	357	358	362	398	408	449	457	519	521	545	551	555	564	570
567	63	174	201	238	295	310	346	371	374	384	412	428	443	467	497	565	588
568	137	141	180	217	230	364	419	435	459	470	473	505	512	530	572	576	582
569	481	490	491	492	499	515	516	528	529	537	542	558	559	581	593	595	596
570	22	82	144	166	252	352	357	368	434	438	449	469	535	545	551	555	564	566
571	69	70	130	152	191	195	234	250	257	266	315	319	379	447	451	468	482	495
572	99	119	127	137	180	312	419	435	440	459	470	473	474	518	530	568	576	582
573	511	548	549	550	585	587	589	591	597	598
574	73	84	111	146	189	207	264	296	322	340	344	377	383	465	486	532	541	560	565	579
575	508	520	522	526	533	547	557	562	578	584	586	590	592	594	599	600
576	58	99	119	132	254	289	312	342	364	419	440	459	470	473	474	512	518	568	572	582
577	47	48	54	151	188	192	194	210	261	263	283	299	394	401	439	461	510	514	517	539	540
578	502	508	520	522	526	533	547	557	562	575	584	586	590	592	594	599	600
579	25	73	84	111	146	189	207	219	264	296	322	339	340	344	377	383	465	486	532	541	560	565	574
580	18	144	166	168	252	270	345	352	357	358	362	368	398	408	438	457	519	521	545	551	555	564	583
581	354	361	366	387	396	475	481	490	491	492	499	515	516	528	529	537	542	554	558	559	569	593	595	596
582	32	127	132	141	154	217	230	289	312	342	364	419	435	440	470	473	474	505	512	518	530	568	572	576
583	22	29	82	90	122	163	343	352	362	373	408	413	434	438	457	469	519	521	535	545	551	555	564	580
584	472	489	502	508	520	522	526	533	547	557	562	575	578	586	590	592	594	599	600
585	485	511	548	549	550	573	587	589	591	597	598
586	454	456	472	489	502	508	520	522	526	533	547	557	562	575	578	584	590	592	594	599	600
587	399	405	411	417	418	425	485	511	548	549	550	573	585	589	591	597	598
588	2	24	51	56	64	85	103	112	114	116	117	174	176	193	201	216	223	233	238	239	265	269	292	295	310	346	371	374	384	412	428	442	443	467	497	561	563	567
589	359	363	370	376	389	399	405	411	417	418	425	485	511	548	549	550	573	585	587	591	597	598
590	404	416	433	454	456	472	489	502	508	520	522	526	533	547	557	562	575	578	584	586	592	594	599	600
591	4	7	16	104	171	236	245	247	253	271	285	324	329	337	359	363	370	376	389	399	405	411	417	418	425	485	511	548	549	550	573	585	587	589	597	598
592	353	367	392	393	404	416	433	454	456	472	489	502	508	520	522	526	533	547	557	562	575	578	584	586	590	594	599	600
593	118	260	276	281	282	286	287	293	298	318	354	361	366	387	396	475	481	490	491	492	499	515	516	528	529	537	542	554	558	559	569	581	595	596
594	156	249	255	280	300	304	305	307	321	328	334	347	353	367	375	392	393	404	416	433	454	456	472	489	502	508	520	522	526	533	547	557	562	575	578	584	586	590	592	599	600
595	1	21	30	31	34	42	60	66	94	97	118	131	198	203	221	248	260	276	281	282	286	287	293	298	318	354	361	366	387	396	475	481	490	491	492	499	515	516	528	529	537	542	554	558	559	569	581	593	596
596	1	21	30	31	34	42	60	66	94	97	131	140	198	203	221	248	276	281	282	286	287	293	298	318	354	361	366	387	396	475	481	490	491	492	499	515	516	528	529	537	542	554	558	559	569	581	593	595	597
597	4	7	36	74	77	78	80	102	106	107	136	138	139	155	157	165	172	177	183	208	224	245	247	253	271	285	324	329	337	359	363	370	376	389	399	405	411	417	418	425	485	511	548	549	550	573	585	587	589	591	596	598
598	16	36	74	77	78	80	102	106	107	136	138	139	155	157	165	171	172	177	183	208	224	236	245	247	253	271	285	308	324	329	337	359	363	370	376	389	399	405	411	417	418	425	485	511	548	549	550	573	585	587	589	591	597
599	11	28	88	95	101	123	124	148	156	159	160	164	181	209	215	222	225	249	255	280	300	304	305	307	321	328	334	347	353	367	375	392	393	404	416	433	454	456	472	489	502	508	520	522	526	533	547	557	562	575	578	584	586	590	592	594	600
600	11	28	88	95	101	123	124	148	159	160	164	181	209	215	222	225	249	255	280	300	304	305	307	308	321	328	334	347	353	367	375	392	393	404	416	433	454	456	472	489	502	508	520	522	526	533	547	557	562	575	578	584	586	590	592	594	599
